{
    "response": {
        "status": "ok",
        "userTier": "developer",
        "total": 242636,
        "startIndex": 1,
        "pageSize": 5,
        "currentPage": 1,
        "pages": 48528,
        "orderBy": "newest",
        "results": [
            {
                "id": "world/2025/apr/12/erdogan-lambasts-israel-for-undermining-stability-in-syria",
                "type": "article",
                "sectionId": "world",
                "sectionName": "World news",
                "webPublicationDate": "2025-04-12T20:11:07Z",
                "webTitle": "Erdoğan lambasts Israel for undermining stability in Syria",
                "webUrl": "https://www.theguardian.com/world/2025/apr/12/erdogan-lambasts-israel-for-undermining-stability-in-syria",
                "apiUrl": "https://content.guardianapis.com/world/2025/apr/12/erdogan-lambasts-israel-for-undermining-stability-in-syria",
                "isHosted": false,
                "pillarId": "pillar/news",
                "pillarName": "News"
            },
            {
                "id": "world/2025/apr/12/iran-foreign-minister-oman-us-nuclear-programme-talks",
                "type": "article",
                "sectionId": "world",
                "sectionName": "World news",
                "webPublicationDate": "2025-04-12T18:30:14Z",
                "webTitle": "Iran and US agree to continue nuclear talks after first indirect round",
                "webUrl": "https://www.theguardian.com/world/2025/apr/12/iran-foreign-minister-oman-us-nuclear-programme-talks",
                "apiUrl": "https://content.guardianapis.com/world/2025/apr/12/iran-foreign-minister-oman-us-nuclear-programme-talks",
                "isHosted": false,
                "pillarId": "pillar/news",
                "pillarName": "News"
            },
            {
                "id": "world/2025/apr/12/people-were-burned-alive-in-their-cars-as-peace-talks-falter-ukrainians-resign-themselves-to-fighting-on",
                "type": "article",
                "sectionId": "world",
                "sectionName": "World news",
                "webPublicationDate": "2025-04-12T16:30:37Z",
                "webTitle": "‘People were burned alive in their cars’: As peace talks falter, Ukrainians resign themselves to fighting on",
                "webUrl": "https://www.theguardian.com/world/2025/apr/12/people-were-burned-alive-in-their-cars-as-peace-talks-falter-ukrainians-resign-themselves-to-fighting-on",
                "apiUrl": "https://content.guardianapis.com/world/2025/apr/12/people-were-burned-alive-in-their-cars-as-peace-talks-falter-ukrainians-resign-themselves-to-fighting-on",
                "isHosted": false,
                "pillarId": "pillar/news",
                "pillarName": "News"
            },
            {
                "id": "world/2025/apr/12/us-demands-control-from-ukraine-of-key-pipeline-carrying-russian-gas",
                "type": "article",
                "sectionId": "world",
                "sectionName": "World news",
                "webPublicationDate": "2025-04-12T15:58:42Z",
                "webTitle": "US ‘demands control’ from Ukraine of key pipeline carrying Russian gas",
                "webUrl": "https://www.theguardian.com/world/2025/apr/12/us-demands-control-from-ukraine-of-key-pipeline-carrying-russian-gas",
                "apiUrl": "https://content.guardianapis.com/world/2025/apr/12/us-demands-control-from-ukraine-of-key-pipeline-carrying-russian-gas",
                "isHosted": false,
                "pillarId": "pillar/news",
                "pillarName": "News"
            },
            {
                "id": "world/2025/apr/12/travellers-arriving-in-great-britain-import-ban-eu-meat-and-dairy",
                "type": "article",
                "sectionId": "world",
                "sectionName": "World news",
                "webPublicationDate": "2025-04-12T15:21:49Z",
                "webTitle": "Travellers arriving in Great Britain face import ban on EU meat and dairy",
                "webUrl": "https://www.theguardian.com/world/2025/apr/12/travellers-arriving-in-great-britain-import-ban-eu-meat-and-dairy",
                "apiUrl": "https://content.guardianapis.com/world/2025/apr/12/travellers-arriving-in-great-britain-import-ban-eu-meat-and-dairy",
                "isHosted": false,
                "pillarId": "pillar/news",
                "pillarName": "News"
            }
        ]
    }
}